lock,ndef.records.0.type,ndef.records.0.url,chip.ntag21356.passwordProtection.newPassword.ascii,chip.ntag21356.passwordProtection.currentPassword.ascii
FALSE,WEBSITE,https://gototags.com/apple,1111,1112
FALSE,WEBSITE,https://gototags.com/bear,2222,9999
FALSE,WEBSITE,https://gototags.com/cat,3333,8888
FALSE,WEBSITE,https://gototags.com/dog,4444,7777
FALSE,WEBSITE,https://gototags.com/elephant,5555,6666
FALSE,WEBSITE,https://gototags.com/frog,6666,5555
FALSE,WEBSITE,https://gototags.com/gorilla,7777,4444
FALSE,WEBSITE,https://gototags.com/honey_bee,8888,3333
FALSE,WEBSITE,https://gototags.com/impala,9999,2222
FALSE,WEBSITE,https://gototags.com/jaguar,1112,1111
