ndef.lock,ndef.records.0.type,ndef.records.0.externalType,ndef.records.0.payload
FALSE,EXTERNAL,c:\,6170706C65
FALSE,EXTERNAL,c:\,62656172
FALSE,EXTERNAL,c:\,636174
FALSE,EXTERNAL,c:\,646F67
FALSE,EXTERNAL,c:\,656C657068616E74
FALSE,EXTERNAL,c:\,66726F67
FALSE,EXTERNAL,c:\,676F72696C6C61
FALSE,EXTERNAL,c:\,686F6E65795F626565
FALSE,EXTERNAL,c:\,696D70616C61
FALSE,EXTERNAL,c:\,6A6167756172
