ndef.lock,ndef.records.0.type,ndef.records.0.phone
FALSE,PHONE,5092223434
FALSE,PHONE,2183242295
FALSE,PHONE,9704768905
FALSE,PHONE,5092149212
FALSE,PHONE,6193882425
FALSE,PHONE,7605342256
FALSE,PHONE,2343454567
FALSE,PHONE,5096193040
FALSE,PHONE,4083446546
FALSE,PHONE,18446328247
