{
    "tags": [
        {
            "epc": {
                "type": "SGTIN",
                "bitCount": 96,
                "companyPrefix": 44413,
                "filterValue": 1,
                "itemRefAndIndicator": 19007,
                "partitionValue": 5,
                "serialNumberDecimal": "0"
            },
            "lockEPC": "FALSE"
        },
        {
            "epc": {
                "type": "SGTIN",
                "bitCount": 96,
                "companyPrefix": 44413,
                "filterValue": 1,
                "itemRefAndIndicator": 19007,
                "partitionValue": 5,
                "serialNumberDecimal": "1"
            },
            "lockEPC": "FALSE"
        },
        {
            "epc": {
                "type": "SGTIN",
                "bitCount": 96,
                "companyPrefix": 44413,
                "filterValue": 1,
                "itemRefAndIndicator": 19007,
                "partitionValue": 5,
                "serialNumberDecimal": "2"
            },
            "lockEPC": "FALSE"
        },
        {
            "epc": {
                "type": "SGTIN",
                "bitCount": 96,
                "companyPrefix": 44413,
                "filterValue": 1,
                "itemRefAndIndicator": 19007,
                "partitionValue": 5,
                "serialNumberDecimal": "3"
            },
            "lockEPC": "FALSE"
        },
        {
            "epc": {
                "type": "SGTIN",
                "bitCount": 96,
                "companyPrefix": 44413,
                "filterValue": 1,
                "itemRefAndIndicator": 19007,
                "partitionValue": 5,
                "serialNumberDecimal": "4"
            },
            "lockEPC": "FALSE"
        },
        {
            "epc": {
                "type": "SGTIN",
                "bitCount": 96,
                "companyPrefix": 44413,
                "filterValue": 1,
                "itemRefAndIndicator": 19007,
                "partitionValue": 5,
                "serialNumberDecimal": "5"
            },
            "lockEPC": "FALSE"
        },
        {
            "epc": {
                "type": "SGTIN",
                "bitCount": 96,
                "companyPrefix": 44413,
                "filterValue": 1,
                "itemRefAndIndicator": 19007,
                "partitionValue": 5,
                "serialNumberDecimal": "6"
            },
            "lockEPC": "FALSE"
        },
        {
            "epc": {
                "type": "SGTIN",
                "bitCount": 96,
                "companyPrefix": 44413,
                "filterValue": 1,
                "itemRefAndIndicator": 19007,
                "partitionValue": 5,
                "serialNumberDecimal": "7"
            },
            "lockEPC": "FALSE"
        },
        {
            "epc": {
                "type": "SGTIN",
                "bitCount": 96,
                "companyPrefix": 44413,
                "filterValue": 1,
                "itemRefAndIndicator": 19007,
                "partitionValue": 5,
                "serialNumberDecimal": "8"
            },
            "lockEPC": "FALSE"
        },
        {
            "epc": {
                "type": "SGTIN",
                "bitCount": 96,
                "companyPrefix": 44413,
                "filterValue": 1,
                "itemRefAndIndicator": 19007,
                "partitionValue": 5,
                "serialNumberDecimal": "9"
            },
            "lockEPC": "FALSE"
        }
    ]
}