{
    "tags": [
        {
            "ndef": {
                "lock": false,
                "records": [
                    {
                        "type": "WEBSITE",
                        "url": "https://gototags.com/apple"
                    },
                    {
                        "type": "TEXT",
                        "text": "apple"
                    }
                ]
            }
        },
        {
            "ndef": {
                "lock": false,
                "records": [
                    {
                        "type": "WEBSITE",
                        "url": "https://gototags.com/bear"
                    },
                    {
                        "type": "TEXT",
                        "text": "bear"
                    }
                ]
            }
        },
        {
            "ndef": {
                "lock": false,
                "records": [
                    {
                        "type": "WEBSITE",
                        "url": "https://gototags.com/cat"
                    },
                    {
                        "type": "TEXT",
                        "text": "cat"
                    }
                ]
            }
        },
        {
            "ndef": {
                "lock": false,
                "records": [
                    {
                        "type": "WEBSITE",
                        "url": "https://gototags.com/dog"
                    },
                    {
                        "type": "TEXT",
                        "text": "dog"
                    }
                ]
            }
        },
        {
            "ndef": {
                "lock": false,
                "records": [
                    {
                        "type": "WEBSITE",
                        "url": "https://gototags.com/elephant"
                    },
                    {
                        "type": "TEXT",
                        "text": "elephant"
                    }
                ]
            }
        },
        {
            "ndef": {
                "lock": false,
                "records": [
                    {
                        "type": "WEBSITE",
                        "url": "https://gototags.com/frog"
                    },
                    {
                        "type": "TEXT",
                        "text": "frog"
                    }
                ]
            }
        },
        {
            "ndef": {
                "lock": false,
                "records": [
                    {
                        "type": "WEBSITE",
                        "url": "https://gototags.com/gorilla"
                    },
                    {
                        "type": "TEXT",
                        "text": "gorilla"
                    }
                ]
            }
        },
        {
            "ndef": {
                "lock": false,
                "records": [
                    {
                        "type": "WEBSITE",
                        "url": "https://gototags.com/honey_bee"
                    },
                    {
                        "type": "TEXT",
                        "text": "honey bee"
                    }
                ]
            }
        },
        {
            "ndef": {
                "lock": false,
                "records": [
                    {
                        "type": "WEBSITE",
                        "url": "https://gototags.com/impala"
                    },
                    {
                        "type": "TEXT",
                        "text": "impala"
                    }
                ]
            }
        },
        {
            "ndef": {
                "lock": false,
                "records": [
                    {
                        "type": "WEBSITE",
                        "url": "https://gototags.com/jaguar"
                    },
                    {
                        "type": "TEXT",
                        "text": "jaguar"
                    }
                ]
            }
        }
    ]
}