ndef.lock,ndef.records.0.type,ndef.records.0.mimeDataUtf8,ndef.records.0.mimeType
FALSE,MIME,apple,application/vnd.api+json
FALSE,MIME,banana,application/vnd.api+json
FALSE,MIME,coconut,application/vnd.api+json
FALSE,MIME,date,application/vnd.api+json
FALSE,MIME,eggplant,application/vnd.api+json
FALSE,MIME,fig,application/vnd.api+json
FALSE,MIME,grape,application/vnd.api+json
FALSE,MIME,honeydew,application/vnd.api+json
